sl3: Machine Learning Pipelines for R · tlverse
…
## Warning: package 'dplyr' was built under R version 3.5.1

library(data.table)
library(caret)
library(sl3)
set.seed(352)

In the above, we simply load a few of the R packages that we’ll rely on throughout this demonstration and set a seed in order to control any randomness in the estimation procedure that follows. Next, let’s load the iris data set:

data(iris)
iris <- iris %>%
  as_tibble(.)
iris

## # A tibble: 150 x 5
##    Sepal.Length Sepal.Width Petal.Length Petal.Width Species
##           <dbl>       <dbl>        <dbl>       <dbl> <fct>  
##  1          5.1         3.5          1.4         0.2 setosa 
##  2          4.9         3            1.4         0.2 setosa 
##  3          4.7         3.2          1.3         0.2 setosa 
##  4          4.6         3.1          1.5         0.2 setosa 
##  5          5           3.6          1.4         0.2 setosa 
##  6          5.4         3.9          1.7         0.4 setosa 
##  7          4.6         3.4          1.4         0.3 setosa 
##  8          5           3.4          1.5         0.2 setosa 
##  9          4.4         2.9          1.4         0.2 setosa 
## 10          4.9         3.1          1.5         0.1 setosa 
## # ... with 140 more rows
…
